// Jest Snapshot v1, https://goo.gl/fbAQLP

exports[`correct LoginCheck component should be unchanged 1`] = `
<div
  class="MuiPaper-root makeStyles-Paper-9 makeStyles-centerPaper-6 MuiPaper-elevation3 MuiPaper-rounded"
>
  <h1
    class="MuiTypography-root MuiTypography-h3 MuiTypography-alignCenter"
  >
    Checking your login
  </h1>
  <div
    class="MuiBox-root MuiBox-root-10 makeStyles-pushDown-7 makeStyles-centerProgress-8"
  >
    <div
      class="MuiCircularProgress-root makeStyles-centerProgress-8 MuiCircularProgress-colorPrimary MuiCircularProgress-indeterminate"
      role="progressbar"
      style="width: 40px; height: 40px;"
    >
      <svg
        class="MuiCircularProgress-svg"
        viewBox="22 22 44 44"
      >
        <circle
          class="MuiCircularProgress-circle MuiCircularProgress-circleIndeterminate"
          cx="44"
          cy="44"
          fill="none"
          r="20.2"
          stroke-width="3.6"
        />
      </svg>
    </div>
  </div>
  <p
    class="MuiTypography-root makeStyles-pushDown-7 MuiTypography-body1 MuiTypography-alignCenter"
  >
    Please wait while we check if you are authenticated. If that is not the case, you will be redirected to the login page.
  </p>
</div>
`;
